INDEX VERSION 1.130+/home/gspl/workspace/.metadata/.plugins/org.eclipse.jdt.core
459027452.index
1908416240.index
867963205.index
626349233.index
1582714241.index
2584784273.index
1277853413.index
3821460339.index
2778688191.index
1192257007.index
2903786883.index
1471500955.index
3807503841.index
122026228.index
1237757435.index
189269579.index
3957892500.index
3767069114.index
459061503.index
470217538.index
2496606449.index
4237867238.index
2195569774.index
4052970622.index
1663807608.index
2857370016.index
3715440024.index
3697203557.index
406497929.index
3577741083.index
3399831909.index
263189462.index
873411745.index
451267862.index
1754938820.index
326288920.index
2298045145.index
2800118265.index
697411358.index
3723981576.index
3523064887.index
2451540110.index
2654249033.index
4047044429.index
2045868710.index
4058583379.index
1592397218.index
1260389537.index
1668148283.index
2227585356.index
3981907072.index
132203144.index
371477603.index
793688204.index
3250333697.index
3817538761.index
3228942811.index
