what,kind,bundleId,bundleVersion,description,time
started,bundle,org.eclipse.ltk.ui.refactoring,3.5.0.v20100526-0800,"org.eclipse.ltk.ui.refactoring",1528361285750
started,bundle,org.eclipse.mylyn.commons.net,3.4.0.v20100608-0100-e3x,"org.eclipse.mylyn.commons.net",1528361285750
started,bundle,org.eclipse.mylyn.monitor.ui,3.4.0.v20100608-0100-e3x,"org.eclipse.mylyn.monitor.ui",1528361285751
started,bundle,org.eclipse.team.core,3.5.100.I20100527-0800,"org.eclipse.team.core",1528361285820
started,bundle,org.eclipse.team.cvs.core,3.3.300.I20100526-0800,"org.eclipse.team.cvs.core",1528361285849
started,bundle,org.eclipse.team.cvs.ui,3.3.300.I20100526-0800,"org.eclipse.team.cvs.ui",1528361285915
started,bundle,org.eclipse.team.ui,3.5.100.I20100527-0800,"org.eclipse.team.ui",1528361285949
started,bundle,org.eclipse.ui,3.6.0.I20100603-1100,"org.eclipse.ui",1528361285950
started,bundle,org.eclipse.ui.console,3.5.0.v20100526,"org.eclipse.ui.console",1528361285950
started,bundle,org.eclipse.ui.editors,3.6.0.v20100520-0800,"org.eclipse.ui.editors",1528361285950
started,bundle,org.eclipse.ui.externaltools,3.2.0.v20100427,"org.eclipse.ui.externaltools",1528361285981
started,bundle,org.eclipse.ui.ide,3.6.0.I20100601-0800,"org.eclipse.ui.ide",1528361285995
started,bundle,org.eclipse.ui.net,1.2.100.I20100505-1245,"org.eclipse.ui.net",1528361285995
started,bundle,org.eclipse.ui.views,3.5.0.I20100527-0800,"org.eclipse.ui.views",1528361285995
started,bundle,org.eclipse.ui.workbench,3.6.0.I20100603-1100,"org.eclipse.ui.workbench",1528361285996
started,bundle,org.eclipse.ui.workbench.texteditor,3.6.0.v20100520-0800,"org.eclipse.ui.workbench.texteditor",1528361286033
started,bundle,org.eclipse.wst.common.project.facet.core,1.4.100.v201005190114,"org.eclipse.wst.common.project.facet.core",1528361286057
started,bundle,org.eclipse.wst.jsdt.debug.ui,1.0.0.v201005250108,"org.eclipse.wst.jsdt.debug.ui",1528361286067
started,bundle,org.eclipse.wst.web,1.1.400.v201005270700,"org.eclipse.wst.web",1528361286067
os,sysinfo,,,"linux",1528361286072
arch,sysinfo,,,"x86_64",1528361286072
ws,sysinfo,,,"gtk",1528361286072
locale,sysinfo,,,"en_IN",1528361286072
processors,sysinfo,,,"4",1528361286072
java.runtime.name,sysinfo,,,"Java(TM) SE Runtime Environment",1528361286072
java.runtime.version,sysinfo,,,"1.8.0_171-b11",1528361286072
java.specification.name,sysinfo,,,"Java Platform API Specification",1528361286072
java.specification.vendor,sysinfo,,,"Oracle Corporation",1528361286072
java.specification.version,sysinfo,,,"1.8",1528361286072
java.vendor,sysinfo,,,"Oracle Corporation",1528361286072
java.version,sysinfo,,,"1.8.0_171",1528361286072
java.vm.info,sysinfo,,,"mixed mode",1528361286072
java.vm.name,sysinfo,,,"Java HotSpot(TM) 64-Bit Server VM",1528361286072
java.vm.specification.name,sysinfo,,,"Java Virtual Machine Specification",1528361286072
java.vm.specification.vendor,sysinfo,,,"Oracle Corporation",1528361286072
java.vm.specification.version,sysinfo,,,"1.8",1528361286072
java.vm.vendor,sysinfo,,,"Oracle Corporation",1528361286072
java.vm.version,sysinfo,,,"25.171-b11",1528361286072
started,bundle,org.eclipse.emf.ecore.xmi,2.5.0.v20100521-1846,"org.eclipse.emf.ecore.xmi",1528361286796
activated,workbench,org.eclipse.ui.workbench,3.6.0.I20100603-1100,"",1528361287430
started,bundle,org.eclipse.jst.common.project.facet.core,1.4.100.v201004202202,"org.eclipse.jst.common.project.facet.core",1528361287860
started,bundle,org.eclipse.jst.ws.jaxrs.core,1.0.0.v201005191955,"org.eclipse.jst.ws.jaxrs.core",1528361287860
started,bundle,org.eclipse.mylyn.commons.ui,3.4.0.v20100608-0100-e3x,"org.eclipse.mylyn.commons.ui",1528361288135
started,bundle,org.eclipse.mylyn.bugzilla.core,3.4.0.v20100608-0100-e3x,"org.eclipse.mylyn.bugzilla.core",1528361288242
started,bundle,org.eclipse.mylyn.bugzilla.ui,3.4.0.v20100608-0100-e3x,"org.eclipse.mylyn.bugzilla.ui",1528361288290
started,bundle,org.eclipse.ui.forms,3.5.0.v20100427,"org.eclipse.ui.forms",1528361288343
started,bundle,org.eclipse.mylyn.context.core,3.4.0.v20100608-0100-e3x,"org.eclipse.mylyn.context.core",1528361288374
started,bundle,org.eclipse.mylyn.context.ui,3.4.0.v20100608-0100-e3x,"org.eclipse.mylyn.context.ui",1528361288385
started,bundle,org.eclipse.mylyn.tasks.ui,3.4.0.v20100608-0100-e3x,"org.eclipse.mylyn.tasks.ui",1528361288728
started,bundle,org.eclipse.mylyn.team.ui,3.4.0.v20100608-0100-e3x,"org.eclipse.mylyn.team.ui",1528361288781
started,bundle,org.eclipse.update.scheduler,3.2.300.v20100512,"org.eclipse.update.scheduler",1528361288800
started,bundle,org.eclipse.update.configurator,3.3.100.v20100512,"org.eclipse.update.configurator",1528361289104
started,bundle,org.eclipse.update.core,3.2.400.v20100512,"org.eclipse.update.core",1528361289127
started,bundle,org.eclipse.wst.server.core,1.1.202.v20100518,"org.eclipse.wst.server.core",1528361289680
started,bundle,org.eclipse.wst.server.ui,1.1.203.v20100601,"org.eclipse.wst.server.ui",1528361289984
activated,view,org.eclipse.debug.ui,3.6.0.v20100601-1530,"org.eclipse.debug.ui.DebugView",1528361291646
activated,editor,org.eclipse.jdt.ui,3.6.0.v20100602-1600,"org.eclipse.jdt.ui.CompilationUnitEditor",1528361292271
started,bundle,org.eclipse.ui.navigator,3.5.0.I20100601-0800,"org.eclipse.ui.navigator",1528361292357
opened,view,org.eclipse.wst.server.ui,1.1.203.v20100601,"org.eclipse.wst.server.ui.ServersView",1528361292696
closed,view,org.eclipse.debug.ui,3.6.0.v20100601-1530,"org.eclipse.debug.ui.DebugView",1528361292702
activated,view,org.eclipse.wst.server.ui,1.1.203.v20100601,"org.eclipse.wst.server.ui.ServersView",1528361293191
activated,editor,org.eclipse.jdt.ui,3.6.0.v20100602-1600,"org.eclipse.jdt.ui.CompilationUnitEditor",1528361293277
activated,view,org.eclipse.debug.ui,3.6.0.v20100601-1530,"org.eclipse.debug.ui.VariableView",1528361294555
activated,editor,org.eclipse.jdt.ui,3.6.0.v20100602-1600,"org.eclipse.jdt.ui.CompilationUnitEditor",1528361294616
closed,view,org.eclipse.debug.ui,3.6.0.v20100601-1530,"org.eclipse.debug.ui.VariableView",1528361294634
opened,editor,org.eclipse.jdt.ui,3.6.0.v20100602-1600,"org.eclipse.jdt.ui.CompilationUnitEditor",1528361299332
activated,editor,org.eclipse.jdt.ui,3.6.0.v20100602-1600,"org.eclipse.jdt.ui.CompilationUnitEditor",1528361299421
opened,editor,org.eclipse.jdt.ui,3.6.0.v20100602-1600,"org.eclipse.jdt.ui.CompilationUnitEditor",1528361300028
activated,editor,org.eclipse.jdt.ui,3.6.0.v20100602-1600,"org.eclipse.jdt.ui.CompilationUnitEditor",1528361300092
executed,command,org.eclipse.jdt.ui,3.6.0.v20100602-1600,"org.eclipse.jdt.ui.edit.text.java.remove.block.comment",1528361305726
activated,editor,org.eclipse.jdt.ui,3.6.0.v20100602-1600,"org.eclipse.jdt.ui.CompilationUnitEditor",1528361324196
activated,editor,org.eclipse.jdt.ui,3.6.0.v20100602-1600,"org.eclipse.jdt.ui.CompilationUnitEditor",1528361327033
started,bundle,org.eclipse.wst.common.frameworks,1.2.0.v201003040800,"org.eclipse.wst.common.frameworks",1528361328405
started,bundle,org.eclipse.wst.common.emf,1.2.0.v201005200700,"org.eclipse.wst.common.emf",1528361328465
started,bundle,org.eclipse.jem.util,2.1.0.v201005130500,"org.eclipse.jem.util",1528361328486
started,bundle,org.eclipse.wst.common.emfworkbench.integration,1.2.0.v201004110600,"org.eclipse.wst.common.emfworkbench.integration",1528361328490
started,bundle,org.eclipse.wst.common.core,1.2.0.v200908252030,"org.eclipse.wst.common.core",1528361328517
started,bundle,org.eclipse.wst.common.modulecore,1.2.0.v201005200200,"org.eclipse.wst.common.modulecore",1528361328521
started,bundle,org.eclipse.jst.j2ee.core,1.2.0.v201005200200,"org.eclipse.jst.j2ee.core",1528361328562
started,bundle,org.eclipse.jem,2.0.400.v201005110200,"org.eclipse.jem",1528361328582
started,bundle,org.eclipse.wst.common.frameworks.ui,1.2.0.v201004080500,"org.eclipse.wst.common.frameworks.ui",1528361328615
started,bundle,org.eclipse.wst.xml.core,1.1.500.v201005271618,"org.eclipse.wst.xml.core",1528361328636
started,bundle,org.eclipse.wst.validation,1.2.200.v201005271900,"org.eclipse.wst.validation",1528361328668
started,bundle,org.eclipse.jst.j2ee,1.1.400.v201005271900,"org.eclipse.jst.j2ee",1528361328735
started,bundle,org.eclipse.jst.server.core,1.2.101.v20100421,"org.eclipse.jst.server.core",1528361328748
started,bundle,org.eclipse.jst.jee,1.0.300.v201005191301,"org.eclipse.jst.jee",1528361328768
started,bundle,org.eclipse.jst.common.frameworks,1.1.400.v201005130500,"org.eclipse.jst.common.frameworks",1528361328842
started,bundle,org.eclipse.pde.launching,3.6.0.v20100601,"org.eclipse.pde.launching",1528361334215
started,bundle,org.eclipse.ui.views.log,1.0.100.v20100423,"org.eclipse.ui.views.log",1528361334224
started,bundle,org.eclipse.pde.ui,3.6.0.v20100601,"org.eclipse.pde.ui",1528361334234
opened,view,org.eclipse.jdt.ui,3.6.0.v20100602-1600,"org.eclipse.jdt.ui.PackageExplorer",1528361334317
opened,view,org.eclipse.jdt.ui,3.6.0.v20100602-1600,"org.eclipse.jdt.callhierarchy.view",1528361334460
started,bundle,org.eclipse.search,3.6.0.v20100520-0800,"org.eclipse.search",1528361334696
opened,view,org.eclipse.mylyn.tasks.ui,3.4.0.v20100608-0100-e3x,"org.eclipse.mylyn.tasks.ui.views.tasks",1528361334888
activated,perspective,org.eclipse.jdt.ui,3.6.0.v20100602-1600,"org.eclipse.jdt.ui.JavaPerspective",1528361334923
activated,view,org.eclipse.mylyn.tasks.ui,3.4.0.v20100608-0100-e3x,"org.eclipse.mylyn.tasks.ui.views.tasks",1528361345118
activated,editor,org.eclipse.jdt.ui,3.6.0.v20100602-1600,"org.eclipse.jdt.ui.CompilationUnitEditor",1528361351777
executed,command,,,"AUTOGEN:::org.eclipse.jdt.debug.CompilationUnitEditor.BreakpointRulerActions/org.eclipse.jdt.debug.ui.actions.ManageBreakpointRulerAction",1528363337219
executed,command,,,"AUTOGEN:::org.eclipse.jdt.debug.CompilationUnitEditor.BreakpointRulerActions/org.eclipse.jdt.debug.ui.actions.ManageBreakpointRulerAction",1528363338690
deactivated,workbench,org.eclipse.ui.workbench,3.6.0.I20100603-1100,"",1528363341698
activated,workbench,org.eclipse.ui.workbench,3.6.0.I20100603-1100,"",1528363417210
executed,command,org.eclipse.ui.workbench.texteditor,3.6.0.v20100520-0800,"org.eclipse.ui.edit.text.moveLineUp",1528363426949
executed,command,org.eclipse.ui.workbench.texteditor,3.6.0.v20100520-0800,"org.eclipse.ui.edit.text.moveLineUp",1528363427392
executed,command,org.eclipse.ui.workbench.texteditor,3.6.0.v20100520-0800,"org.eclipse.ui.edit.text.moveLineUp",1528363427616
executed,command,org.eclipse.ui.workbench.texteditor,3.6.0.v20100520-0800,"org.eclipse.ui.edit.text.moveLineUp",1528363427791
executed,command,org.eclipse.ui.workbench.texteditor,3.6.0.v20100520-0800,"org.eclipse.ui.edit.text.moveLineUp",1528363427959
executed,command,org.eclipse.ui.workbench.texteditor,3.6.0.v20100520-0800,"org.eclipse.ui.edit.text.moveLineUp",1528363428106
executed,command,org.eclipse.ui.workbench.texteditor,3.6.0.v20100520-0800,"org.eclipse.ui.edit.text.moveLineUp",1528363428246
executed,command,org.eclipse.ui.workbench.texteditor,3.6.0.v20100520-0800,"org.eclipse.ui.edit.text.moveLineUp",1528363428392
executed,command,org.eclipse.ui.workbench.texteditor,3.6.0.v20100520-0800,"org.eclipse.ui.edit.text.moveLineDown",1528363428700
executed,command,org.eclipse.ui.workbench.texteditor,3.6.0.v20100520-0800,"org.eclipse.ui.edit.text.moveLineDown",1528363428917
executed,command,org.eclipse.ui.workbench.texteditor,3.6.0.v20100520-0800,"org.eclipse.ui.edit.text.moveLineDown",1528363429052
executed,command,org.eclipse.ui.workbench.texteditor,3.6.0.v20100520-0800,"org.eclipse.ui.edit.text.moveLineDown",1528363429201
executed,command,org.eclipse.ui.workbench.texteditor,3.6.0.v20100520-0800,"org.eclipse.ui.edit.text.moveLineDown",1528363429363
executed,command,org.eclipse.ui.workbench.texteditor,3.6.0.v20100520-0800,"org.eclipse.ui.edit.text.moveLineDown",1528363429516
executed,command,org.eclipse.ui.workbench.texteditor,3.6.0.v20100520-0800,"org.eclipse.ui.edit.text.moveLineDown",1528363429681
executed,command,org.eclipse.ui.workbench.texteditor,3.6.0.v20100520-0800,"org.eclipse.ui.edit.text.moveLineDown",1528363430018
executed,command,org.eclipse.ui,3.6.0.I20100603-1100,"org.eclipse.ui.file.save",1528363431612
deactivated,workbench,org.eclipse.ui.workbench,3.6.0.I20100603-1100,"",1528363432120
activated,workbench,org.eclipse.ui.workbench,3.6.0.I20100603-1100,"",1528363453843
activated,editor,org.eclipse.jdt.ui,3.6.0.v20100602-1600,"org.eclipse.jdt.ui.CompilationUnitEditor",1528363457572
activated,editor,org.eclipse.jdt.ui,3.6.0.v20100602-1600,"org.eclipse.jdt.ui.CompilationUnitEditor",1528363470546
activated,editor,org.eclipse.jdt.ui,3.6.0.v20100602-1600,"org.eclipse.jdt.ui.CompilationUnitEditor",1528363472033
activated,editor,org.eclipse.jdt.ui,3.6.0.v20100602-1600,"org.eclipse.jdt.ui.CompilationUnitEditor",1528363478220
activated,editor,org.eclipse.jdt.ui,3.6.0.v20100602-1600,"org.eclipse.jdt.ui.CompilationUnitEditor",1528363493176
executed,command,org.eclipse.ui,3.6.0.I20100603-1100,"org.eclipse.ui.navigate.backwardHistory",1528363493179
activated,editor,org.eclipse.jdt.ui,3.6.0.v20100602-1600,"org.eclipse.jdt.ui.CompilationUnitEditor",1528363493368
executed,command,org.eclipse.ui,3.6.0.I20100603-1100,"org.eclipse.ui.navigate.backwardHistory",1528363493375
activated,editor,org.eclipse.jdt.ui,3.6.0.v20100602-1600,"org.eclipse.jdt.ui.CompilationUnitEditor",1528363494086
executed,command,org.eclipse.ui,3.6.0.I20100603-1100,"org.eclipse.ui.navigate.backwardHistory",1528363494089
activated,editor,org.eclipse.jdt.ui,3.6.0.v20100602-1600,"org.eclipse.jdt.ui.CompilationUnitEditor",1528363494614
executed,command,org.eclipse.ui,3.6.0.I20100603-1100,"org.eclipse.ui.navigate.backwardHistory",1528363494616
activated,editor,org.eclipse.jdt.ui,3.6.0.v20100602-1600,"org.eclipse.jdt.ui.CompilationUnitEditor",1528363495151
executed,command,org.eclipse.ui,3.6.0.I20100603-1100,"org.eclipse.ui.navigate.backwardHistory",1528363495154
activated,editor,org.eclipse.jdt.ui,3.6.0.v20100602-1600,"org.eclipse.jdt.ui.CompilationUnitEditor",1528363495626
executed,command,org.eclipse.ui,3.6.0.I20100603-1100,"org.eclipse.ui.navigate.backwardHistory",1528363495633
activated,editor,org.eclipse.jdt.ui,3.6.0.v20100602-1600,"org.eclipse.jdt.ui.CompilationUnitEditor",1528363495837
executed,command,org.eclipse.ui,3.6.0.I20100603-1100,"org.eclipse.ui.navigate.backwardHistory",1528363495841
activated,editor,org.eclipse.jdt.ui,3.6.0.v20100602-1600,"org.eclipse.jdt.ui.CompilationUnitEditor",1528363495991
executed,command,org.eclipse.ui,3.6.0.I20100603-1100,"org.eclipse.ui.navigate.backwardHistory",1528363495997
opened,editor,org.eclipse.jdt.ui,3.6.0.v20100602-1600,"org.eclipse.jdt.ui.CompilationUnitEditor",1528363496199
activated,editor,org.eclipse.jdt.ui,3.6.0.v20100602-1600,"org.eclipse.jdt.ui.CompilationUnitEditor",1528363496243
executed,command,org.eclipse.ui,3.6.0.I20100603-1100,"org.eclipse.ui.navigate.backwardHistory",1528363496245
activated,editor,org.eclipse.jdt.ui,3.6.0.v20100602-1600,"org.eclipse.jdt.ui.CompilationUnitEditor",1528363496391
executed,command,org.eclipse.ui,3.6.0.I20100603-1100,"org.eclipse.ui.navigate.backwardHistory",1528363496396
opened,editor,org.eclipse.jdt.ui,3.6.0.v20100602-1600,"org.eclipse.jdt.ui.CompilationUnitEditor",1528363496578
activated,editor,org.eclipse.jdt.ui,3.6.0.v20100602-1600,"org.eclipse.jdt.ui.CompilationUnitEditor",1528363496632
executed,command,org.eclipse.ui,3.6.0.I20100603-1100,"org.eclipse.ui.navigate.backwardHistory",1528363496728
opened,editor,org.eclipse.jdt.ui,3.6.0.v20100602-1600,"org.eclipse.jdt.ui.ClassFileEditor",1528363497318
activated,editor,org.eclipse.jdt.ui,3.6.0.v20100602-1600,"org.eclipse.jdt.ui.ClassFileEditor",1528363497466
executed,command,org.eclipse.ui,3.6.0.I20100603-1100,"org.eclipse.ui.navigate.backwardHistory",1528363497493
activated,editor,org.eclipse.jdt.ui,3.6.0.v20100602-1600,"org.eclipse.jdt.ui.CompilationUnitEditor",1528363497863
executed,command,org.eclipse.ui,3.6.0.I20100603-1100,"org.eclipse.ui.navigate.backwardHistory",1528363497867
activated,editor,org.eclipse.jdt.ui,3.6.0.v20100602-1600,"org.eclipse.jdt.ui.CompilationUnitEditor",1528363498545
executed,command,org.eclipse.ui,3.6.0.I20100603-1100,"org.eclipse.ui.navigate.backwardHistory",1528363498547
activated,editor,org.eclipse.jdt.ui,3.6.0.v20100602-1600,"org.eclipse.jdt.ui.CompilationUnitEditor",1528363498995
executed,command,org.eclipse.ui,3.6.0.I20100603-1100,"org.eclipse.ui.navigate.backwardHistory",1528363498997
activated,editor,org.eclipse.jdt.ui,3.6.0.v20100602-1600,"org.eclipse.jdt.ui.CompilationUnitEditor",1528363499426
executed,command,org.eclipse.ui,3.6.0.I20100603-1100,"org.eclipse.ui.navigate.backwardHistory",1528363499428
executed,command,org.eclipse.ui,3.6.0.I20100603-1100,"org.eclipse.ui.navigate.backwardHistory",1528363499769
executed,command,org.eclipse.ui,3.6.0.I20100603-1100,"org.eclipse.ui.navigate.forwardHistory",1528363500856
activated,editor,org.eclipse.jdt.ui,3.6.0.v20100602-1600,"org.eclipse.jdt.ui.CompilationUnitEditor",1528363501082
executed,command,org.eclipse.ui,3.6.0.I20100603-1100,"org.eclipse.ui.navigate.forwardHistory",1528363501084
activated,editor,org.eclipse.jdt.ui,3.6.0.v20100602-1600,"org.eclipse.jdt.ui.CompilationUnitEditor",1528363501225
executed,command,org.eclipse.ui,3.6.0.I20100603-1100,"org.eclipse.ui.navigate.forwardHistory",1528363501227
activated,editor,org.eclipse.jdt.ui,3.6.0.v20100602-1600,"org.eclipse.jdt.ui.CompilationUnitEditor",1528363501395
executed,command,org.eclipse.ui,3.6.0.I20100603-1100,"org.eclipse.ui.navigate.forwardHistory",1528363501397
activated,editor,org.eclipse.jdt.ui,3.6.0.v20100602-1600,"org.eclipse.jdt.ui.ClassFileEditor",1528363501575
executed,command,org.eclipse.ui,3.6.0.I20100603-1100,"org.eclipse.ui.navigate.forwardHistory",1528363501579
activated,editor,org.eclipse.jdt.ui,3.6.0.v20100602-1600,"org.eclipse.jdt.ui.CompilationUnitEditor",1528363501756
executed,command,org.eclipse.ui,3.6.0.I20100603-1100,"org.eclipse.ui.navigate.forwardHistory",1528363501759
activated,editor,org.eclipse.jdt.ui,3.6.0.v20100602-1600,"org.eclipse.jdt.ui.CompilationUnitEditor",1528363502257
executed,command,org.eclipse.ui,3.6.0.I20100603-1100,"org.eclipse.ui.navigate.forwardHistory",1528363502258
activated,editor,org.eclipse.jdt.ui,3.6.0.v20100602-1600,"org.eclipse.jdt.ui.CompilationUnitEditor",1528363502435
executed,command,org.eclipse.ui,3.6.0.I20100603-1100,"org.eclipse.ui.navigate.forwardHistory",1528363502437
activated,editor,org.eclipse.jdt.ui,3.6.0.v20100602-1600,"org.eclipse.jdt.ui.CompilationUnitEditor",1528363502928
executed,command,org.eclipse.ui,3.6.0.I20100603-1100,"org.eclipse.ui.navigate.forwardHistory",1528363502931
activated,editor,org.eclipse.jdt.ui,3.6.0.v20100602-1600,"org.eclipse.jdt.ui.CompilationUnitEditor",1528363503088
executed,command,org.eclipse.ui,3.6.0.I20100603-1100,"org.eclipse.ui.navigate.forwardHistory",1528363503090
activated,editor,org.eclipse.jdt.ui,3.6.0.v20100602-1600,"org.eclipse.jdt.ui.CompilationUnitEditor",1528363503634
executed,command,org.eclipse.ui,3.6.0.I20100603-1100,"org.eclipse.ui.navigate.forwardHistory",1528363503641
activated,editor,org.eclipse.jdt.ui,3.6.0.v20100602-1600,"org.eclipse.jdt.ui.CompilationUnitEditor",1528363504031
executed,command,org.eclipse.ui,3.6.0.I20100603-1100,"org.eclipse.ui.navigate.forwardHistory",1528363504033
deactivated,workbench,org.eclipse.ui.workbench,3.6.0.I20100603-1100,"",1528363504843
activated,workbench,org.eclipse.ui.workbench,3.6.0.I20100603-1100,"",1528363505445
deactivated,workbench,org.eclipse.ui.workbench,3.6.0.I20100603-1100,"",1528363505904
activated,workbench,org.eclipse.ui.workbench,3.6.0.I20100603-1100,"",1528363507157
deactivated,workbench,org.eclipse.ui.workbench,3.6.0.I20100603-1100,"",1528363507894
activated,workbench,org.eclipse.ui.workbench,3.6.0.I20100603-1100,"",1528363513652
deactivated,workbench,org.eclipse.ui.workbench,3.6.0.I20100603-1100,"",1528363514219
activated,workbench,org.eclipse.ui.workbench,3.6.0.I20100603-1100,"",1528363514550
deactivated,workbench,org.eclipse.ui.workbench,3.6.0.I20100603-1100,"",1528363515168
activated,workbench,org.eclipse.ui.workbench,3.6.0.I20100603-1100,"",1528363516847
activated,view,org.eclipse.jdt.ui,3.6.0.v20100602-1600,"org.eclipse.jdt.ui.PackageExplorer",1528363522523
activated,editor,org.eclipse.jdt.ui,3.6.0.v20100602-1600,"org.eclipse.jdt.ui.CompilationUnitEditor",1528363529393
activated,view,org.eclipse.jdt.ui,3.6.0.v20100602-1600,"org.eclipse.jdt.ui.PackageExplorer",1528363529443
activated,editor,org.eclipse.jdt.ui,3.6.0.v20100602-1600,"org.eclipse.jdt.ui.CompilationUnitEditor",1528363531691
activated,view,org.eclipse.jdt.ui,3.6.0.v20100602-1600,"org.eclipse.jdt.ui.PackageExplorer",1528363534596
activated,editor,org.eclipse.jdt.ui,3.6.0.v20100602-1600,"org.eclipse.jdt.ui.CompilationUnitEditor",1528363534786
activated,view,org.eclipse.jdt.ui,3.6.0.v20100602-1600,"org.eclipse.jdt.ui.PackageExplorer",1528363534812
activated,editor,org.eclipse.jdt.ui,3.6.0.v20100602-1600,"org.eclipse.jdt.ui.CompilationUnitEditor",1528363537036
executed,command,org.eclipse.ui,3.6.0.I20100603-1100,"org.eclipse.ui.file.save",1528363542195
deactivated,workbench,org.eclipse.ui.workbench,3.6.0.I20100603-1100,"",1528363543180
activated,workbench,org.eclipse.ui.workbench,3.6.0.I20100603-1100,"",1528363545638
deactivated,workbench,org.eclipse.ui.workbench,3.6.0.I20100603-1100,"",1528363546208
activated,workbench,org.eclipse.ui.workbench,3.6.0.I20100603-1100,"",1528363582502
activated,view,org.eclipse.jdt.ui,3.6.0.v20100602-1600,"org.eclipse.jdt.ui.PackageExplorer",1528363588991
opened,editor,org.eclipse.jdt.ui,3.6.0.v20100602-1600,"org.eclipse.jdt.ui.CompilationUnitEditor",1528363590576
activated,editor,org.eclipse.jdt.ui,3.6.0.v20100602-1600,"org.eclipse.jdt.ui.CompilationUnitEditor",1528363590653
activated,view,org.eclipse.jdt.ui,3.6.0.v20100602-1600,"org.eclipse.jdt.ui.PackageExplorer",1528363590688
activated,editor,org.eclipse.jdt.ui,3.6.0.v20100602-1600,"org.eclipse.jdt.ui.CompilationUnitEditor",1528363681210
activated,view,org.eclipse.jdt.ui,3.6.0.v20100602-1600,"org.eclipse.jdt.ui.PackageExplorer",1528363681251
activated,editor,org.eclipse.jdt.ui,3.6.0.v20100602-1600,"org.eclipse.jdt.ui.CompilationUnitEditor",1528363701756
activated,editor,org.eclipse.jdt.ui,3.6.0.v20100602-1600,"org.eclipse.jdt.ui.CompilationUnitEditor",1528363723503
activated,editor,org.eclipse.jdt.ui,3.6.0.v20100602-1600,"org.eclipse.jdt.ui.CompilationUnitEditor",1528363726395
deactivated,workbench,org.eclipse.ui.workbench,3.6.0.I20100603-1100,"",1528363736628
activated,workbench,org.eclipse.ui.workbench,3.6.0.I20100603-1100,"",1528363742665
activated,view,org.eclipse.jdt.ui,3.6.0.v20100602-1600,"org.eclipse.jdt.ui.PackageExplorer",1528363747240
activated,editor,org.eclipse.jdt.ui,3.6.0.v20100602-1600,"org.eclipse.jdt.ui.CompilationUnitEditor",1528363747423
activated,view,org.eclipse.jdt.ui,3.6.0.v20100602-1600,"org.eclipse.jdt.ui.PackageExplorer",1528363747458
activated,editor,org.eclipse.jdt.ui,3.6.0.v20100602-1600,"org.eclipse.jdt.ui.CompilationUnitEditor",1528363748835
activated,view,org.eclipse.jdt.ui,3.6.0.v20100602-1600,"org.eclipse.jdt.ui.PackageExplorer",1528363784315
activated,editor,org.eclipse.jdt.ui,3.6.0.v20100602-1600,"org.eclipse.jdt.ui.CompilationUnitEditor",1528363784507
activated,view,org.eclipse.jdt.ui,3.6.0.v20100602-1600,"org.eclipse.jdt.ui.PackageExplorer",1528363784538
activated,editor,org.eclipse.jdt.ui,3.6.0.v20100602-1600,"org.eclipse.jdt.ui.CompilationUnitEditor",1528363785450
activated,view,org.eclipse.jdt.ui,3.6.0.v20100602-1600,"org.eclipse.jdt.ui.PackageExplorer",1528363794092
activated,editor,org.eclipse.jdt.ui,3.6.0.v20100602-1600,"org.eclipse.jdt.ui.CompilationUnitEditor",1528363794268
activated,view,org.eclipse.jdt.ui,3.6.0.v20100602-1600,"org.eclipse.jdt.ui.PackageExplorer",1528363794308
activated,editor,org.eclipse.jdt.ui,3.6.0.v20100602-1600,"org.eclipse.jdt.ui.CompilationUnitEditor",1528363797358
activated,view,org.eclipse.jdt.ui,3.6.0.v20100602-1600,"org.eclipse.jdt.ui.PackageExplorer",1528363811331
activated,editor,org.eclipse.jdt.ui,3.6.0.v20100602-1600,"org.eclipse.jdt.ui.CompilationUnitEditor",1528363811513
activated,view,org.eclipse.jdt.ui,3.6.0.v20100602-1600,"org.eclipse.jdt.ui.PackageExplorer",1528363811544
activated,editor,org.eclipse.jdt.ui,3.6.0.v20100602-1600,"org.eclipse.jdt.ui.CompilationUnitEditor",1528363813183
activated,view,org.eclipse.jdt.ui,3.6.0.v20100602-1600,"org.eclipse.jdt.ui.PackageExplorer",1528363817734
opened,editor,org.eclipse.jdt.ui,3.6.0.v20100602-1600,"org.eclipse.jdt.ui.CompilationUnitEditor",1528363818068
activated,editor,org.eclipse.jdt.ui,3.6.0.v20100602-1600,"org.eclipse.jdt.ui.CompilationUnitEditor",1528363818128
activated,view,org.eclipse.jdt.ui,3.6.0.v20100602-1600,"org.eclipse.jdt.ui.PackageExplorer",1528363818174
activated,editor,org.eclipse.jdt.ui,3.6.0.v20100602-1600,"org.eclipse.jdt.ui.CompilationUnitEditor",1528363820315
activated,view,org.eclipse.jdt.ui,3.6.0.v20100602-1600,"org.eclipse.jdt.ui.PackageExplorer",1528363820343
activated,editor,org.eclipse.jdt.ui,3.6.0.v20100602-1600,"org.eclipse.jdt.ui.CompilationUnitEditor",1528363835333
activated,view,org.eclipse.jdt.ui,3.6.0.v20100602-1600,"org.eclipse.jdt.ui.PackageExplorer",1528363907375
activated,editor,org.eclipse.jdt.ui,3.6.0.v20100602-1600,"org.eclipse.jdt.ui.CompilationUnitEditor",1528363907538
activated,view,org.eclipse.jdt.ui,3.6.0.v20100602-1600,"org.eclipse.jdt.ui.PackageExplorer",1528363907570
activated,editor,org.eclipse.jdt.ui,3.6.0.v20100602-1600,"org.eclipse.jdt.ui.CompilationUnitEditor",1528363908709
activated,view,org.eclipse.jdt.ui,3.6.0.v20100602-1600,"org.eclipse.jdt.ui.PackageExplorer",1528363913259
activated,editor,org.eclipse.jdt.ui,3.6.0.v20100602-1600,"org.eclipse.jdt.ui.CompilationUnitEditor",1528363913429
activated,view,org.eclipse.jdt.ui,3.6.0.v20100602-1600,"org.eclipse.jdt.ui.PackageExplorer",1528363913458
deactivated,workbench,org.eclipse.ui.workbench,3.6.0.I20100603-1100,"",1528363966391
activated,workbench,org.eclipse.ui.workbench,3.6.0.I20100603-1100,"",1528364308470
activated,editor,org.eclipse.jdt.ui,3.6.0.v20100602-1600,"org.eclipse.jdt.ui.CompilationUnitEditor",1528364310194
