<?xml version="1.0" encoding="UTF-8"?>
<session version="1.0">
<refactoring comment="Rename compilation unit &apos;com.girnarsoft.employees.FileOperations.java&apos; to &apos;DataBaseOperations.java&apos;&#x0A;- Original project: &apos;EmployeesJdbc&apos;&#x0A;- Original element: &apos;com.girnarsoft.employees.FileOperations.java&apos;&#x0A;- Renamed element: &apos;com.girnarsoft.employees.DataBaseOperations.java&apos;" description="Rename compilation unit &apos;FileOperations.java&apos;" flags="2" id="org.eclipse.jdt.ui.rename.compilationunit" input="/src&lt;com.girnarsoft.employees{FileOperations.java" name="DataBaseOperations.java" references="false" stamp="1529054389015" version="1.0"/>
</session>